{"count":1126,"next":"https://pokeapi.co/api/v2/pokemon?offset=100&limit=100","previous":null,"results":[{"name":"bulbasaur","img":"http://www.serebii.net/pokemongo/pokemon/001.png","id":"1","url":"https://pokeapi.co/api/v2/pokemon/1/"},{"name":"ivysaur","img":"http://www.serebii.net/pokemongo/pokemon/002.png","id":"2","url":"https://pokeapi.co/api/v2/pokemon/2/"},{"name":"venusaur","img":"http://www.serebii.net/pokemongo/pokemon/003.png","id":"3","url":"https://pokeapi.co/api/v2/pokemon/3/"},{"name":"charmander","img":"http://www.serebii.net/pokemongo/pokemon/004.png","id":"4","url":"https://pokeapi.co/api/v2/pokemon/4/"},{"name":"charmeleon","img":"http://www.serebii.net/pokemongo/pokemon/005.png","id":"5","url":"https://pokeapi.co/api/v2/pokemon/5/"},{"name":"charizard","img":"http://www.serebii.net/pokemongo/pokemon/006.png","id":"6","url":"https://pokeapi.co/api/v2/pokemon/6/"},{"name":"squirtle","img":"http://www.serebii.net/pokemongo/pokemon/007.png","id":"7","url":"https://pokeapi.co/api/v2/pokemon/7/"},{"name":"wartortle","img":"http://www.serebii.net/pokemongo/pokemon/008.png","id":"8","url":"https://pokeapi.co/api/v2/pokemon/8/"},{"name":"blastoise","img":"http://www.serebii.net/pokemongo/pokemon/009.png","id":"9","url":"https://pokeapi.co/api/v2/pokemon/9/"},{"name":"caterpie","img":"http://www.serebii.net/pokemongo/pokemon/010.png","id":"10","url":"https://pokeapi.co/api/v2/pokemon/10/"},{"name":"metapod","img":"http://www.serebii.net/pokemongo/pokemon/011.png","id":"11","url":"https://pokeapi.co/api/v2/pokemon/11/"},{"name":"butterfree","img":"http://www.serebii.net/pokemongo/pokemon/012.png","id":"12","url":"https://pokeapi.co/api/v2/pokemon/12/"},{"name":"weedle","img":"http://www.serebii.net/pokemongo/pokemon/013.png","id":"13","url":"https://pokeapi.co/api/v2/pokemon/13/"},{"name":"kakuna","img":"http://www.serebii.net/pokemongo/pokemon/014.png","id":"14","url":"https://pokeapi.co/api/v2/pokemon/14/"},{"name":"beedrill","img":"http://www.serebii.net/pokemongo/pokemon/015.png","id":"15","url":"https://pokeapi.co/api/v2/pokemon/15/"},{"name":"pidgey","img":"http://www.serebii.net/pokemongo/pokemon/016.png","id":"16","url":"https://pokeapi.co/api/v2/pokemon/16/"},{"name":"pidgeotto","img":"http://www.serebii.net/pokemongo/pokemon/017.png","id":"17","url":"https://pokeapi.co/api/v2/pokemon/17/"},{"name":"pidgeot","img":"http://www.serebii.net/pokemongo/pokemon/018.png","id":"18","url":"https://pokeapi.co/api/v2/pokemon/18/"},{"name":"rattata","img":"http://www.serebii.net/pokemongo/pokemon/019.png","id":"19","url":"https://pokeapi.co/api/v2/pokemon/19/"},{"name":"raticate","img":"http://www.serebii.net/pokemongo/pokemon/020.png","id":"20","url":"https://pokeapi.co/api/v2/pokemon/20/"},{"name":"spearow","img":"http://www.serebii.net/pokemongo/pokemon/021.png","id":"21","url":"https://pokeapi.co/api/v2/pokemon/21/"},{"name":"fearow","img":"http://www.serebii.net/pokemongo/pokemon/022.png","id":"22","url":"https://pokeapi.co/api/v2/pokemon/22/"},{"name":"ekans","img":"http://www.serebii.net/pokemongo/pokemon/023.png","id":"23","url":"https://pokeapi.co/api/v2/pokemon/23/"},{"name":"arbok","img":"http://www.serebii.net/pokemongo/pokemon/024.png","id":"24","url":"https://pokeapi.co/api/v2/pokemon/24/"},{"name":"pikachu","img":"http://www.serebii.net/pokemongo/pokemon/025.png","id":"25","url":"https://pokeapi.co/api/v2/pokemon/25/"},{"name":"raichu","img":"http://www.serebii.net/pokemongo/pokemon/026.png","id":"26","url":"https://pokeapi.co/api/v2/pokemon/26/"},{"name":"sandshrew","img":"http://www.serebii.net/pokemongo/pokemon/027.png","id":"27","url":"https://pokeapi.co/api/v2/pokemon/27/"},{"name":"sandslash","img":"http://www.serebii.net/pokemongo/pokemon/028.png","id":"28","url":"https://pokeapi.co/api/v2/pokemon/28/"},{"name":"nidoran-f","img":"http://www.serebii.net/pokemongo/pokemon/029.png","id":"29","url":"https://pokeapi.co/api/v2/pokemon/29/"},{"name":"nidorina","img":"http://www.serebii.net/pokemongo/pokemon/030.png","id":"30","url":"https://pokeapi.co/api/v2/pokemon/30/"},{"name":"nidoqueen","img":"http://www.serebii.net/pokemongo/pokemon/031.png","id":"31","url":"https://pokeapi.co/api/v2/pokemon/31/"},{"name":"nidoran-m","img":"http://www.serebii.net/pokemongo/pokemon/032.png","id":"32","url":"https://pokeapi.co/api/v2/pokemon/32/"},{"name":"nidorino","img":"http://www.serebii.net/pokemongo/pokemon/033.png","id":"33","url":"https://pokeapi.co/api/v2/pokemon/33/"},{"name":"nidoking","img":"http://www.serebii.net/pokemongo/pokemon/034.png","id":"34","url":"https://pokeapi.co/api/v2/pokemon/34/"},{"name":"clefairy","img":"http://www.serebii.net/pokemongo/pokemon/035.png","id":"35","url":"https://pokeapi.co/api/v2/pokemon/35/"},{"name":"clefable","img":"http://www.serebii.net/pokemongo/pokemon/036.png","id":"36","url":"https://pokeapi.co/api/v2/pokemon/36/"},{"name":"vulpix","img":"http://www.serebii.net/pokemongo/pokemon/037.png","id":"37","url":"https://pokeapi.co/api/v2/pokemon/37/"},{"name":"ninetales","img":"http://www.serebii.net/pokemongo/pokemon/038.png","id":"38","url":"https://pokeapi.co/api/v2/pokemon/38/"},{"name":"jigglypuff","img":"http://www.serebii.net/pokemongo/pokemon/039.png","id":"39","url":"https://pokeapi.co/api/v2/pokemon/39/"},{"name":"wigglytuff","img":"http://www.serebii.net/pokemongo/pokemon/040.png","id":"40","url":"https://pokeapi.co/api/v2/pokemon/40/"},{"name":"zubat","img":"http://www.serebii.net/pokemongo/pokemon/041.png","id":"41","url":"https://pokeapi.co/api/v2/pokemon/41/"},{"name":"golbat","img":"http://www.serebii.net/pokemongo/pokemon/042.png","id":"42","url":"https://pokeapi.co/api/v2/pokemon/42/"},{"name":"oddish","img":"http://www.serebii.net/pokemongo/pokemon/043.png","id":"43","url":"https://pokeapi.co/api/v2/pokemon/43/"},{"name":"gloom","img":"http://www.serebii.net/pokemongo/pokemon/044.png","id":"44","url":"https://pokeapi.co/api/v2/pokemon/44/"},{"name":"vileplume","img":"http://www.serebii.net/pokemongo/pokemon/045.png","id":"45","url":"https://pokeapi.co/api/v2/pokemon/45/"},{"name":"paras","img":"http://www.serebii.net/pokemongo/pokemon/046.png","id":"46","url":"https://pokeapi.co/api/v2/pokemon/46/"},{"name":"parasect","img":"http://www.serebii.net/pokemongo/pokemon/047.png","id":"47","url":"https://pokeapi.co/api/v2/pokemon/47/"},{"name":"venonat","img":"http://www.serebii.net/pokemongo/pokemon/048.png","id":"48","url":"https://pokeapi.co/api/v2/pokemon/48/"},{"name":"venomoth","img":"http://www.serebii.net/pokemongo/pokemon/049.png","id":"49","url":"https://pokeapi.co/api/v2/pokemon/49/"},{"name":"diglett","img":"http://www.serebii.net/pokemongo/pokemon/050.png","id":"50","url":"https://pokeapi.co/api/v2/pokemon/50/"},{"name":"dugtrio","img":"http://www.serebii.net/pokemongo/pokemon/051.png","id":"51","url":"https://pokeapi.co/api/v2/pokemon/51/"},{"name":"meowth","img":"http://www.serebii.net/pokemongo/pokemon/052.png","id":"52","url":"https://pokeapi.co/api/v2/pokemon/52/"},{"name":"persian","img":"http://www.serebii.net/pokemongo/pokemon/053.png","id":"53","url":"https://pokeapi.co/api/v2/pokemon/53/"},{"name":"psyduck","img":"http://www.serebii.net/pokemongo/pokemon/054.png","id":"54","url":"https://pokeapi.co/api/v2/pokemon/54/"},{"name":"golduck","img":"http://www.serebii.net/pokemongo/pokemon/055.png","id":"55","url":"https://pokeapi.co/api/v2/pokemon/55/"},{"name":"mankey","img":"http://www.serebii.net/pokemongo/pokemon/056.png","id":"56","url":"https://pokeapi.co/api/v2/pokemon/56/"},{"name":"primeape","img":"http://www.serebii.net/pokemongo/pokemon/057.png","id":"57","url":"https://pokeapi.co/api/v2/pokemon/57/"},{"name":"growlithe","img":"http://www.serebii.net/pokemongo/pokemon/058.png","id":"58","url":"https://pokeapi.co/api/v2/pokemon/58/"},{"name":"arcanine","img":"http://www.serebii.net/pokemongo/pokemon/059.png","id":"59","url":"https://pokeapi.co/api/v2/pokemon/59/"},{"name":"poliwag","img":"http://www.serebii.net/pokemongo/pokemon/060.png","id":"60","url":"https://pokeapi.co/api/v2/pokemon/60/"},{"name":"poliwhirl","img":"http://www.serebii.net/pokemongo/pokemon/061.png","id":"61","url":"https://pokeapi.co/api/v2/pokemon/61/"},{"name":"poliwrath","img":"http://www.serebii.net/pokemongo/pokemon/062.png","id":"62","url":"https://pokeapi.co/api/v2/pokemon/62/"},{"name":"abra","img":"http://www.serebii.net/pokemongo/pokemon/063.png","id":"63","url":"https://pokeapi.co/api/v2/pokemon/63/"},{"name":"kadabra","img":"http://www.serebii.net/pokemongo/pokemon/064.png","id":"64","url":"https://pokeapi.co/api/v2/pokemon/64/"},{"name":"alakazam","img":"http://www.serebii.net/pokemongo/pokemon/065.png","id":"65","url":"https://pokeapi.co/api/v2/pokemon/65/"},{"name":"machop","img":"http://www.serebii.net/pokemongo/pokemon/066.png","id":"66","url":"https://pokeapi.co/api/v2/pokemon/66/"},{"name":"machoke","img":"http://www.serebii.net/pokemongo/pokemon/067.png","id":"67","url":"https://pokeapi.co/api/v2/pokemon/67/"},{"name":"machamp","img":"http://www.serebii.net/pokemongo/pokemon/068.png","id":"68","url":"https://pokeapi.co/api/v2/pokemon/68/"},{"name":"bellsprout","img":"http://www.serebii.net/pokemongo/pokemon/069.png","id":"69","url":"https://pokeapi.co/api/v2/pokemon/69/"},{"name":"weepinbell","img":"http://www.serebii.net/pokemongo/pokemon/070.png","id":"70","url":"https://pokeapi.co/api/v2/pokemon/70/"},{"name":"victreebel","img":"http://www.serebii.net/pokemongo/pokemon/071.png","id":"71","url":"https://pokeapi.co/api/v2/pokemon/71/"},{"name":"tentacool","img":"http://www.serebii.net/pokemongo/pokemon/072.png","id":"72","url":"https://pokeapi.co/api/v2/pokemon/72/"},{"name":"tentacruel","img":"http://www.serebii.net/pokemongo/pokemon/073.png","id":"73","url":"https://pokeapi.co/api/v2/pokemon/73/"},{"name":"geodude","img":"http://www.serebii.net/pokemongo/pokemon/074.png","id":"74","url":"https://pokeapi.co/api/v2/pokemon/74/"},{"name":"graveler","img":"http://www.serebii.net/pokemongo/pokemon/075.png","id":"75","url":"https://pokeapi.co/api/v2/pokemon/75/"},{"name":"golem","img":"http://www.serebii.net/pokemongo/pokemon/076.png","id":"76","url":"https://pokeapi.co/api/v2/pokemon/76/"},{"name":"ponyta","img":"http://www.serebii.net/pokemongo/pokemon/077.png","id":"77","url":"https://pokeapi.co/api/v2/pokemon/77/"},{"name":"rapidash","img":"http://www.serebii.net/pokemongo/pokemon/078.png","id":"78","url":"https://pokeapi.co/api/v2/pokemon/78/"},{"name":"slowpoke","img":"http://www.serebii.net/pokemongo/pokemon/079.png","id":"79","url":"https://pokeapi.co/api/v2/pokemon/79/"},{"name":"slowbro","img":"http://www.serebii.net/pokemongo/pokemon/080.png","id":"80","url":"https://pokeapi.co/api/v2/pokemon/80/"},{"name":"magnemite","img":"http://www.serebii.net/pokemongo/pokemon/081.png","id":"81","url":"https://pokeapi.co/api/v2/pokemon/81/"},{"name":"magneton","img":"http://www.serebii.net/pokemongo/pokemon/082.png","id":"82","url":"https://pokeapi.co/api/v2/pokemon/82/"},{"name":"farfetchd","img":"http://www.serebii.net/pokemongo/pokemon/083.png","id":"83","url":"https://pokeapi.co/api/v2/pokemon/83/"},{"name":"doduo","img":"http://www.serebii.net/pokemongo/pokemon/084.png","id":"84","url":"https://pokeapi.co/api/v2/pokemon/84/"},{"name":"dodrio","img":"http://www.serebii.net/pokemongo/pokemon/085.png","id":"85","url":"https://pokeapi.co/api/v2/pokemon/85/"},{"name":"seel","img":"http://www.serebii.net/pokemongo/pokemon/086.png","id":"86","url":"https://pokeapi.co/api/v2/pokemon/86/"},{"name":"dewgong","img":"http://www.serebii.net/pokemongo/pokemon/087.png","id":"87","url":"https://pokeapi.co/api/v2/pokemon/87/"},{"name":"grimer","img":"http://www.serebii.net/pokemongo/pokemon/088.png","id":"88","url":"https://pokeapi.co/api/v2/pokemon/88/"},{"name":"muk","img":"http://www.serebii.net/pokemongo/pokemon/089.png","id":"89","url":"https://pokeapi.co/api/v2/pokemon/89/"},{"name":"shellder","img":"http://www.serebii.net/pokemongo/pokemon/090.png","id":"90","url":"https://pokeapi.co/api/v2/pokemon/90/"},{"name":"cloyster","img":"http://www.serebii.net/pokemongo/pokemon/091.png","id":"91","url":"https://pokeapi.co/api/v2/pokemon/91/"},{"name":"gastly","img":"http://www.serebii.net/pokemongo/pokemon/092.png","id":"92","url":"https://pokeapi.co/api/v2/pokemon/92/"},{"name":"haunter","img":"http://www.serebii.net/pokemongo/pokemon/093.png","id":"93","url":"https://pokeapi.co/api/v2/pokemon/93/"},{"name":"gengar","img":"http://www.serebii.net/pokemongo/pokemon/094.png","id":"94","url":"https://pokeapi.co/api/v2/pokemon/94/"},{"name":"onix","img":"http://www.serebii.net/pokemongo/pokemon/095.png","id":"95","url":"https://pokeapi.co/api/v2/pokemon/95/"},{"name":"drowzee","img":"http://www.serebii.net/pokemongo/pokemon/096.png","id":"96","url":"https://pokeapi.co/api/v2/pokemon/96/"},{"name":"hypno","img":"http://www.serebii.net/pokemongo/pokemon/097.png","id":"97","url":"https://pokeapi.co/api/v2/pokemon/97/"},{"name":"krabby","img":"http://www.serebii.net/pokemongo/pokemon/098.png","id":"98","url":"https://pokeapi.co/api/v2/pokemon/98/"},{"name":"kingler","img":"http://www.serebii.net/pokemongo/pokemon/099.png","id":"99","url":"https://pokeapi.co/api/v2/pokemon/99/"},{"name":"voltorb","img":"http://www.serebii.net/pokemongo/pokemon/100.png","id":"100","url":"https://pokeapi.co/api/v2/pokemon/100/"}]}
